…
Finally, we can process all the variables:

```jl
julia> df = process_telemetry_packets(
           tms,
           [:V001, :V002, :V003, :V004, :V005, :V006, :V007, :V008, :V009]
       )
Progress: 100%|██████████████████████████████████████████████████| Time: 0:00:00
[ Info: 30000 packets out of 30000 were processed correctly.
30000×10 DataFrame
   Row │ timestamp            V001                 V002      V003        V004        V0 ⋯
       │ DateTime             DateTime             String    Float32     Float32     Fl ⋯
───────┼─────────────────────────────────────────────────────────────────────────────────
     1 │ 2021-06-19T11:00:01  2021-06-19T11:00:19  Stand-By   0.0         0.0        0. ⋯
     2 │ 2021-06-19T11:00:02  2021-06-19T11:00:20  Stand-By   0.0         0.0        0.
     3 │ 2021-06-19T11:00:03  2021-06-19T11:00:21  Stand-By   0.0         0.0        0.
     4 │ 2021-06-19T11:00:04  2021-06-19T11:00:22  Stand-By   0.0         0.0        0.
     5 │ 2021-06-19T11:00:05  2021-06-19T11:00:23  Stand-By   0.0         0.0        0. ⋯
   ⋮   │          ⋮                    ⋮              ⋮          ⋮           ⋮          ⋱
 29996 │ 2021-06-19T19:19:56  2021-06-19T19:20:14  Mission   -2.65117e6  -3.97796e6  5.
 29997 │ 2021-06-19T19:19:57  2021-06-19T19:20:15  Mission   -2.64952e6  -3.97254e6  5.
 29998 │ 2021-06-19T19:19:58  2021-06-19T19:20:16  Mission   -2.64786e6  -3.96712e6  5.
 29999 │ 2021-06-19T19:19:59  2021-06-19T19:20:17  Mission   -2.64621e6  -3.96169e6  5. ⋯
 30000 │ 2021-06-19T19:20:00  2021-06-19T19:20:18  Mission   -2.64455e6  -3.95625e6  5.
                                                         5 columns and 29990 rows omitted
```
